(footprint "MASKS" (version 20220131) (generator pcbnew)
  (layer "F.Cu")
  (tedit 0)
  (descr "Various mask settings")
  (fp_text reference "REF**" (at 0 0) (layer "F.SilkS")
      (effects (font (size 1.27 1.27) (thickness 0.15)))
    (tstamp 0c83fcb5-bcc7-4f84-8394-d4fc9899e233)
  )
  (fp_text value "MASKS" (at 0 0) (layer "F.SilkS")
      (effects (font (size 1.27 1.27) (thickness 0.15)))
    (tstamp 784b6458-3ae8-48f4-9482-731714d7927e)
  )
  (fp_text user "Mask Exp" (at -19.746 7.238164 unlocked) (layer "Dwgs.User")
      (effects (font (size 1.524 1.524) (thickness 0.254)) (justify left bottom))
    (tstamp 1b0f55f9-5fa5-489c-9db2-e63c29ecdd31)
  )
  (fp_text user "-0.1" (at 10.254 7.746 unlocked) (layer "Dwgs.User")
      (effects (font (size 1.524 1.524) (thickness 0.254)) (justify left bottom))
    (tstamp 44d6780b-0f7d-4066-bfb2-bff50f00afa0)
  )
  (fp_text user "-1" (at -5.746 7.746 unlocked) (layer "Dwgs.User")
      (effects (font (size 1.524 1.524) (thickness 0.254)) (justify left bottom))
    (tstamp e584f27e-45dd-4fdd-8c50-c7400e4b2ab2)
  )
  (fp_text user "-0.25" (at -0.746 7.746 unlocked) (layer "Dwgs.User")
      (effects (font (size 1.524 1.524) (thickness 0.254)) (justify left bottom))
    (tstamp f01a08c4-d9f1-4838-af18-b59bca81082c)
  )
  (fp_line (start -5 5) (end -5 -5)
    (stroke (width 0.5) (type solid)) (layer "F.Cu") (tstamp c47c1013-522e-4afa-9dd5-776b2bbec89a))
  (fp_line (start 4 5) (end 4 -5)
    (stroke (width 0.5) (type solid)) (layer "F.Cu") (tstamp e16db058-fa43-40bf-9cff-c2ed4fab6ab5))
  (fp_line (start 13 5) (end 13 -5)
    (stroke (width 0.5) (type solid)) (layer "F.Cu") (tstamp 3de27c1c-897a-4a6c-b0f7-6b3c6fd91fd1))
)
